<?xml version="1.0" encoding="utf-8"?>
<!-- Generator: Adobe Illustrator 21.0.2, SVG Export Plug-In . SVG Version: 6.00 Build 0)  -->
<svg version="1.1" baseProfile="tiny" id="Layer_1" xmlns="http://www.w3.org/2000/svg" xmlns:xlink="http://www.w3.org/1999/xlink"
	 x="0px" y="0px" width="68.8px" height="15.2px" viewBox="0 0 68.8 15.2" xml:space="preserve">
<g>
	<path fill="#FFFFFF" d="M1,2.3h1.7v8h3.9v1.4H1V2.3z"/>
	<path fill="#FFFFFF" d="M8.9,8.8c0,1.2,1,1.8,2.1,1.8c0.8,0,1.4-0.1,1.9-0.3l0.3,1.2c-0.6,0.2-1.4,0.4-2.4,0.4
		c-2.2,0-3.5-1.4-3.5-3.4c0-1.9,1.1-3.7,3.3-3.7c2.2,0,2.9,1.8,2.9,3.3c0,0.3,0,0.6-0.1,0.7H8.9z M11.9,7.6c0-0.6-0.3-1.7-1.4-1.7
		c-1.1,0-1.5,1-1.6,1.7H11.9z"/>
	<path fill="#FFFFFF" d="M18.7,11.7L18.6,11h0c-0.4,0.5-1.1,0.9-2,0.9c-1.4,0-2.1-1-2.1-2c0-1.7,1.5-2.6,4-2.6V7.2
		c0-0.4-0.2-1.2-1.4-1.2c-0.7,0-1.4,0.2-1.8,0.5l-0.3-1.1c0.5-0.3,1.4-0.6,2.5-0.6c2.2,0,2.8,1.4,2.8,2.9v2.5c0,0.6,0,1.2,0.1,1.6
		H18.7z M18.5,8.4c-1.2,0-2.4,0.2-2.4,1.3c0,0.7,0.4,1,1,1c0.7,0,1.2-0.4,1.3-0.9c0-0.1,0.1-0.3,0.1-0.4V8.4z"/>
	<path fill="#FFFFFF" d="M22,7.1c0-0.9,0-1.6-0.1-2.2h1.5l0.1,1.3h0.1c0.3-1,1.1-1.5,1.9-1.5c0.2,0,0.3,0,0.4,0v1.6
		c-0.1,0-0.3-0.1-0.5-0.1c-0.8,0-1.4,0.5-1.5,1.3c0,0.2-0.1,0.3-0.1,0.5v3.5H22V7.1z"/>
	<path fill="#FFFFFF" d="M27,6.9c0-0.8,0-1.4-0.1-2h1.5l0.1,1h0c0.3-0.5,1-1.2,2.2-1.2c1.2,0,2.4,0.8,2.4,2.9v4h-1.7V7.9
		c0-1-0.4-1.7-1.3-1.7c-0.7,0-1.2,0.5-1.3,1c-0.1,0.2-0.1,0.4-0.1,0.6v4H27V6.9z"/>
	<path fill="#FFFFFF" d="M37.9,6.9c0-0.8,0-1.4-0.1-2h1.5l0.1,1h0c0.3-0.5,1-1.2,2.1-1.2c0.9,0,1.6,0.5,1.9,1.3h0
		c0.2-0.4,0.5-0.7,0.8-0.9c0.4-0.3,0.8-0.4,1.4-0.4c1.1,0,2.3,0.8,2.3,3v4h-1.7V8c0-1.1-0.4-1.8-1.2-1.8c-0.6,0-1,0.4-1.2,0.9
		c0,0.2-0.1,0.4-0.1,0.6v4.1h-1.7v-4c0-1-0.4-1.6-1.2-1.6c-0.6,0-1.1,0.5-1.2,1c-0.1,0.2-0.1,0.4-0.1,0.6v4h-1.7V6.9z"/>
	<path fill="#FFFFFF" d="M56.3,8.2c0,2.5-1.8,3.6-3.5,3.6c-1.9,0-3.4-1.3-3.4-3.5c0-2.2,1.5-3.6,3.5-3.6C54.9,4.7,56.3,6.2,56.3,8.2
		z M51.1,8.3c0,1.3,0.6,2.3,1.7,2.3c1,0,1.7-1,1.7-2.3C54.5,7.2,54,6,52.8,6C51.6,6,51.1,7.2,51.1,8.3z"/>
	<path fill="#FFFFFF" d="M57.7,7.1c0-0.9,0-1.6-0.1-2.2h1.5l0.1,1.3h0.1c0.3-1,1.1-1.5,1.9-1.5c0.2,0,0.3,0,0.4,0v1.6
		c-0.1,0-0.3-0.1-0.5-0.1c-0.8,0-1.4,0.5-1.5,1.3c0,0.2-0.1,0.3-0.1,0.5v3.5h-1.7V7.1z"/>
	<path fill="#FFFFFF" d="M63.7,8.8c0,1.2,1,1.8,2.1,1.8c0.8,0,1.4-0.1,1.9-0.3l0.3,1.2c-0.6,0.2-1.4,0.4-2.4,0.4
		c-2.2,0-3.5-1.4-3.5-3.4c0-1.9,1.1-3.7,3.3-3.7c2.2,0,2.9,1.8,2.9,3.3c0,0.3,0,0.6-0.1,0.7H63.7z M66.7,7.6c0-0.6-0.3-1.7-1.4-1.7
		c-1.1,0-1.5,1-1.6,1.7H66.7z"/>
</g>
<g>
</g>
<g>
</g>
<g>
</g>
<g>
</g>
<g>
</g>
<g>
</g>
<g>
</g>
<g>
</g>
<g>
</g>
<g>
</g>
<g>
</g>
<g>
</g>
<g>
</g>
<g>
</g>
<g>
</g>
</svg>
